{
  "v": "5.6.5",
  "fr": 24,
  "ip": 0,
  "op": 144,
  "w": 1440,
  "h": 420,
  "nm": "Comp 1",
  "ddd": 0,
  "assets": [],
  "layers": [
    {
      "ddd": 0,
      "ind": 1,
      "ty": 4,
      "nm": "Shape Layer 1",
      "sr": 1,
      "ks": {
        "o": {"a": 0, "k": 100, "ix": 11},
        "r": {"a": 0, "k": 0, "ix": 10},
        "p": {"a": 0, "k": [994, 296, 0], "ix": 2},
        "a": {"a": 0, "k": [0, 0, 0], "ix": 1},
        "s": {"a": 0, "k": [73.826, 65.997, 100], "ix": 6}
      },
      "ao": 0,
      "ef": [
        {
          "ty": 29,
          "nm": "Gaussian Blur",
          "np": 5,
          "mn": "ADBE Gaussian Blur 2",
          "ix": 1,
          "en": 1,
          "ef": [
            {
              "ty": 0,
              "nm": "Blurriness",
              "mn": "ADBE Gaussian Blur 2-0001",
              "ix": 1,
              "v": {"a": 0, "k": 240.1, "ix": 1}
            },
            {
              "ty": 7,
              "nm": "Blur Dimensions",
              "mn": "ADBE Gaussian Blur 2-0002",
              "ix": 2,
              "v": {"a": 0, "k": 1, "ix": 2}
            },
            {
              "ty": 7,
              "nm": "Repeat Edge Pixels",
              "mn": "ADBE Gaussian Blur 2-0003",
              "ix": 3,
              "v": {"a": 0, "k": 0, "ix": 3}
            }
          ]
        }
      ],
      "shapes": [
        {
          "ty": "gr",
          "it": [
            {
              "ind": 0,
              "ty": "sh",
              "ix": 1,
              "ks": {
                "a": 1,
                "k": [
                  {
                    "i": {"x": 0.833, "y": 0.833},
                    "o": {"x": 0.167, "y": 0.167},
                    "t": 0,
                    "s": [
                      {
                        "i": [
                          [0, 0],
                          [0, 0],
                          [0, 0],
                          [0, 0],
                          [0, 0],
                          [0, 0],
                          [0, 0],
                          [0, 0]
                        ],
                        "o": [
                          [0, 0],
                          [0, 0],
                          [0, 0],
                          [0, 0],
                          [0, 0],
                          [0, 0],
                          [0, 0],
                          [0, 0]
                        ],
                        "v": [
                          [143.037, 39.67],
                          [-202.252, 106.629],
                          [-322.505, 72.67],
                          [-541, 180],
                          [-549, 239],
                          [568, 226],
                          [529, 139],
                          [239, 53]
                        ],
                        "c": true
                      }
                    ]
                  },
                  {
                    "i": {"x": 0.833, "y": 0.833},
                    "o": {"x": 0.167, "y": 0.167},
                    "t": 36,
                    "s": [
                      {
                        "i": [
                          [0, 0],
                          [0, 0],
                          [0, 0],
                          [0, 0],
                          [0, 0],
                          [0, 0],
                          [0, 0],
                          [0, 0]
                        ],
                        "o": [
                          [0, 0],
                          [0, 0],
                          [0, 0],
                          [0, 0],
                          [0, 0],
                          [0, 0],
                          [0, 0],
                          [0, 0]
                        ],
                        "v": [
                          [-70.978, -17.909],
                          [-196.834, 24.807],
                          [-373.977, 154.492],
                          [-619.563, 76.964],
                          [-727.798, 257.183],
                          [567.999, 226],
                          [480.237, 120.817],
                          [76.458, 77.243]
                        ],
                        "c": true
                      }
                    ]
                  },
                  {
                    "i": {"x": 0.833, "y": 0.833},
                    "o": {"x": 0.167, "y": 0.167},
                    "t": 97,
                    "s": [
                      {
                        "i": [
                          [0, 0],
                          [0, 0],
                          [0, 0],
                          [0, 0],
                          [0, 0],
                          [0, 0],
                          [0, 0],
                          [0, 0]
                        ],
                        "o": [
                          [0, 0],
                          [0, 0],
                          [0, 0],
                          [0, 0],
                          [0, 0],
                          [0, 0],
                          [0, 0],
                          [0, 0]
                        ],
                        "v": [
                          [254.285, 97.532],
                          [-202.252, 106.629],
                          [-401.017, 102.097],
                          [-398.686, 162.978],
                          [-625.866, 246.817],
                          [568, 226],
                          [508.036, 131.183],
                          [265.433, -9.705]
                        ],
                        "c": true
                      }
                    ]
                  },
                  {
                    "t": 143,
                    "s": [
                      {
                        "i": [
                          [0, 0],
                          [0, 0],
                          [0, 0],
                          [0, 0],
                          [0, 0],
                          [0, 0],
                          [0, 0],
                          [0, 0]
                        ],
                        "o": [
                          [0, 0],
                          [0, 0],
                          [0, 0],
                          [0, 0],
                          [0, 0],
                          [0, 0],
                          [0, 0],
                          [0, 0]
                        ],
                        "v": [
                          [143.037, 39.67],
                          [-202.252, 106.629],
                          [-322.505, 72.67],
                          [-541, 180],
                          [-549, 239],
                          [568, 226],
                          [529, 139],
                          [239, 53]
                        ],
                        "c": true
                      }
                    ]
                  }
                ],
                "ix": 2
              },
              "nm": "Path 1",
              "mn": "ADBE Vector Shape - Group",
              "hd": false
            },
            {
              "ty": "st",
              "c": {"a": 0, "k": [1, 1, 1, 1], "ix": 3},
              "o": {"a": 0, "k": 100, "ix": 4},
              "w": {"a": 0, "k": 0, "ix": 5},
              "lc": 1,
              "lj": 1,
              "ml": 4,
              "bm": 0,
              "nm": "Stroke 1",
              "mn": "ADBE Vector Graphic - Stroke",
              "hd": false
            },
            {
              "ty": "fl",
              "c": {
                "a": 0,
                "k": [0.792156862745, 0.972549019608, 0.745098039216, 1],
                "ix": 4
              },
              "o": {"a": 0, "k": 100, "ix": 5},
              "r": 1,
              "bm": 0,
              "nm": "Fill 1",
              "mn": "ADBE Vector Graphic - Fill",
              "hd": false
            },
            {
              "ty": "tr",
              "p": {"a": 0, "k": [-89, -8], "ix": 2},
              "a": {"a": 0, "k": [0, 0], "ix": 1},
              "s": {"a": 0, "k": [100, 100], "ix": 3},
              "r": {"a": 0, "k": 0, "ix": 6},
              "o": {"a": 0, "k": 100, "ix": 7},
              "sk": {"a": 0, "k": 0, "ix": 4},
              "sa": {"a": 0, "k": 0, "ix": 5},
              "nm": "Transform"
            }
          ],
          "nm": "Shape 1",
          "np": 3,
          "cix": 2,
          "bm": 0,
          "ix": 1,
          "mn": "ADBE Vector Group",
          "hd": false
        }
      ],
      "ip": 0,
      "op": 144,
      "st": 0,
      "bm": 0
    },
    {
      "ddd": 0,
      "ind": 2,
      "ty": 4,
      "nm": "Shape Layer 2",
      "sr": 1,
      "ks": {
        "o": {"a": 0, "k": 100, "ix": 11},
        "r": {"a": 0, "k": 0, "ix": 10},
        "p": {"a": 0, "k": [562, 260, 0], "ix": 2},
        "a": {"a": 0, "k": [0, 0, 0], "ix": 1},
        "s": {"a": 0, "k": [61.287, 78.701, 100], "ix": 6}
      },
      "ao": 0,
      "ef": [
        {
          "ty": 29,
          "nm": "Gaussian Blur",
          "np": 5,
          "mn": "ADBE Gaussian Blur 2",
          "ix": 1,
          "en": 1,
          "ef": [
            {
              "ty": 0,
              "nm": "Blurriness",
              "mn": "ADBE Gaussian Blur 2-0001",
              "ix": 1,
              "v": {"a": 0, "k": 300, "ix": 1}
            },
            {
              "ty": 7,
              "nm": "Blur Dimensions",
              "mn": "ADBE Gaussian Blur 2-0002",
              "ix": 2,
              "v": {"a": 0, "k": 1, "ix": 2}
            },
            {
              "ty": 7,
              "nm": "Repeat Edge Pixels",
              "mn": "ADBE Gaussian Blur 2-0003",
              "ix": 3,
              "v": {"a": 0, "k": 0, "ix": 3}
            }
          ]
        }
      ],
      "shapes": [
        {
          "ty": "gr",
          "it": [
            {
              "ind": 0,
              "ty": "sh",
              "ix": 1,
              "ks": {
                "a": 1,
                "k": [
                  {
                    "i": {"x": 0.833, "y": 0.833},
                    "o": {"x": 0.167, "y": 0.167},
                    "t": 0,
                    "s": [
                      {
                        "i": [
                          [0, 0],
                          [0, 0],
                          [0, 0],
                          [0, 0],
                          [0, 0],
                          [0, 0],
                          [0, 0],
                          [0, 0]
                        ],
                        "o": [
                          [0, 0],
                          [0, 0],
                          [0, 0],
                          [0, 0],
                          [0, 0],
                          [0, 0],
                          [0, 0],
                          [0, 0]
                        ],
                        "v": [
                          [81.35, 11.386],
                          [-210.799, -52.187],
                          [-362.666, 103.325],
                          [-544.311, 121.845],
                          [-538.378, 223.913],
                          [568, 226],
                          [529, 139],
                          [408.213, 12.34]
                        ],
                        "c": true
                      }
                    ]
                  },
                  {
                    "i": {"x": 0.833, "y": 0.833},
                    "o": {"x": 0.167, "y": 0.167},
                    "t": 63,
                    "s": [
                      {
                        "i": [
                          [0, 0],
                          [0, 0],
                          [0, 0],
                          [0, 0],
                          [0, 0],
                          [0, 0],
                          [0, 0],
                          [0, 0]
                        ],
                        "o": [
                          [0, 0],
                          [0, 0],
                          [0, 0],
                          [0, 0],
                          [0, 0],
                          [0, 0],
                          [0, 0],
                          [0, 0]
                        ],
                        "v": [
                          [-93.863, -18.789],
                          [-245.842, -49.673],
                          [-416.823, 12.802],
                          [-537.94, 126.874],
                          [-618.02, 223.913],
                          [1335.746, 243.602],
                          [1137.465, -6.843],
                          [538.825, 100.349]
                        ],
                        "c": true
                      }
                    ]
                  },
                  {
                    "t": 143,
                    "s": [
                      {
                        "i": [
                          [0, 0],
                          [0, 0],
                          [0, 0],
                          [0, 0],
                          [0, 0],
                          [0, 0],
                          [0, 0],
                          [0, 0]
                        ],
                        "o": [
                          [0, 0],
                          [0, 0],
                          [0, 0],
                          [0, 0],
                          [0, 0],
                          [0, 0],
                          [0, 0],
                          [0, 0]
                        ],
                        "v": [
                          [81.35, 11.386],
                          [-210.799, -52.187],
                          [-362.666, 103.325],
                          [-544.311, 121.845],
                          [-538.378, 223.913],
                          [568, 226],
                          [529, 139],
                          [408.213, 12.34]
                        ],
                        "c": true
                      }
                    ]
                  }
                ],
                "ix": 2
              },
              "nm": "Path 1",
              "mn": "ADBE Vector Shape - Group",
              "hd": false
            },
            {
              "ty": "st",
              "c": {"a": 0, "k": [1, 1, 1, 1], "ix": 3},
              "o": {"a": 0, "k": 100, "ix": 4},
              "w": {"a": 0, "k": 0, "ix": 5},
              "lc": 1,
              "lj": 1,
              "ml": 4,
              "bm": 0,
              "nm": "Stroke 1",
              "mn": "ADBE Vector Graphic - Stroke",
              "hd": false
            },
            {
              "ty": "fl",
              "c": {
                "a": 0,
                "k": [0.164705882353, 0.670588235294, 0.882352941176, 1],
                "ix": 4
              },
              "o": {"a": 0, "k": 100, "ix": 5},
              "r": 1,
              "bm": 0,
              "nm": "Fill 1",
              "mn": "ADBE Vector Graphic - Fill",
              "hd": false
            },
            {
              "ty": "tr",
              "p": {"a": 0, "k": [-89, -8], "ix": 2},
              "a": {"a": 0, "k": [0, 0], "ix": 1},
              "s": {"a": 0, "k": [102.438, 101.062], "ix": 3},
              "r": {"a": 0, "k": 0, "ix": 6},
              "o": {"a": 0, "k": 100, "ix": 7},
              "sk": {"a": 0, "k": 0, "ix": 4},
              "sa": {"a": 0, "k": 0, "ix": 5},
              "nm": "Transform"
            }
          ],
          "nm": "Shape 1",
          "np": 3,
          "cix": 2,
          "bm": 0,
          "ix": 1,
          "mn": "ADBE Vector Group",
          "hd": false
        }
      ],
      "ip": 0,
      "op": 144,
      "st": 0,
      "bm": 0
    }
  ],
  "markers": []
}
